<?xml version="1.0" encoding="UTF-8"?>
<session version="1.0">
<refactoring comment="Delete resource &apos;mindstorm_client&apos;" deleteContents="false" description="Delete resource &apos;mindstorm_client&apos;" element1="/mindstorm_client" flags="7" id="org.eclipse.ltk.core.refactoring.delete.resources" resources="1" stamp="1521639782756"/>
</session>